%YAML 1.1
%TAG !u! tag:unity3d.com,2011:
--- !u!21 &2100000
Material:
  serializedVersion: 6
  m_ObjectHideFlags: 0
  m_PrefabParentObject: {fileID: 0}
  m_PrefabInternal: {fileID: 0}
  m_Name: TowelCloud_daylight_transparentA
  m_Shader: {fileID: 4800000, guid: 761503b1c7c8f064db222ff383925028, type: 3}
  m_ShaderKeywords: _SCATTERING_ON _SKYTRANSPARENT_ON
  m_LightmapFlags: 4
  m_EnableInstancingVariants: 0
  m_DoubleSidedGI: 0
  m_CustomRenderQueue: -1
  stringTagMap: {}
  disabledShaderPasses: []
  m_SavedProperties:
    serializedVersion: 3
    m_TexEnvs:
    - _MainTex:
        m_Texture: {fileID: 0}
        m_Scale: {x: 1, y: 1}
        m_Offset: {x: 0, y: 0}
    - _cloudColor:
        m_Texture: {fileID: 2800000, guid: b744d1029882b83489ef74835a5146ed, type: 3}
        m_Scale: {x: 1, y: 1}
        m_Offset: {x: 0, y: 0}
    - _cloudMap:
        m_Texture: {fileID: 2800000, guid: c22a3ab6f10ab0044bb6e72834be8fb1, type: 3}
        m_Scale: {x: 1, y: 1}
        m_Offset: {x: 0, y: 0}
    - _color:
        m_Texture: {fileID: 2800000, guid: 8486e2bb3baa0a245af8280adbf3c50d, type: 3}
        m_Scale: {x: 1, y: 1}
        m_Offset: {x: 0, y: 0}
    - _rimMap:
        m_Texture: {fileID: 2800000, guid: cb7c1eff012f9094e8df929bbb17768d, type: 3}
        m_Scale: {x: 1, y: 1}
        m_Offset: {x: 0, y: 0}
    - _skyColor:
        m_Texture: {fileID: 2800000, guid: 7f5268970ed41c24dbb29bb6e50b43a4, type: 3}
        m_Scale: {x: 1, y: 1}
        m_Offset: {x: 0, y: 0}
    - _skyMap:
        m_Texture: {fileID: 2800000, guid: 39ca1354fea2f9040830c8c5137f980e, type: 3}
        m_Scale: {x: 1, y: 1}
        m_Offset: {x: 0, y: 0}
    m_Floats:
    - _ForObject: 0
    - _TRANSPARENT: 1
    - _Transparent: 0
    - _alphaRate: 1
    - _boost: 1.1
    - _cloudy: 0.476
    - _cloudySoft: 0.1
    - _debugInput: 2
    - _debugInput0: 0
    - _debugInput1: 0
    - _debugInput2: 1.5
    - _fbmScaleUnder: 0.43
    - _moveRotation: 0
    - _rimForce: 0.49
    - _rimNarrow: 1.2
    - _rotateY: 0
    - _rotateZ: 40
    - _roundness: 0.635
    - _roundnessFront: 0.317
    - _roundnessSide: 0.183
    - _scale: 120
    - _scattering: 1
    - _scatteringForce: 0.8
    - _scatteringPassRate: 0.33
    - _scatteringRange: 0.5
    - _shapeSpeed: 0.1
    - _skyEffectRate: 0.45
    - _skyTransParent: 1
    - _soft: 0.071
    - _softDecayArea: 0.613
    - _softDecayPower: 0.678
    - _speed: 0.3
    - _speedOffset: 0.8
    - _speedSlide: 0
    - _turbulence: 0
    - _turbulenceForce: 10
    - _turbulenceMove: 1
    - _turbulenceScale: 3
    m_Colors:
    - _scatteringColor: {r: 1, g: 1, b: 1, a: 1}
